Metabolite name,Metabolite description,Metabolite formula
malcoa_c,malonyl_CoA,C24H38N7O19P3S
hdca_c,hexadecanoic_n_C160,C16H32O2
ocdcdea_c,octadecadienoate_n_C182,C18H31O2
ocdctea_c,octadecatetraenoate_n_C184,C18H27O2
eic_c,eicosanoic_n_200,C20H40O2
eiccoa_c,eicosanoic_n_200_CoA,C41H74N7O17P3S
ice_c,icosenoate_n_C201,C20H37O2
icecoa_c,icosenoate_n_C201_CoA,C41H64N7O17P3S
icecoa_ap,icosenoate_n_C201_CoA,C41H64N7O17P3S
doco_c,docosanoic_n_220,C22H44O2
doccoa_c,docosanoic_n_220_CoA,C43H78N7O17P3S
doccoa_ap,docosanoic_n_220_CoA,C43H78N7O17P3S
docoe_c,docosanoic_n_221,C22H42O2
docoecoa_c,docosanoic_n_221_CoA,C43H76N7O17P3S
docoecoa_ap,docosanoic_n_221_CoA,C43H76N7O17P3S
icdea_c,icosadienoate_n_C202,C20H35O2
ictea_c,icosatrienoate_n_C203,C20H33O2
icttea_c,icosatetraenoate_n_C204,C20H31O2
dcttea_c,docosatetraenoate_n_224,C22H36O2
dcpea_c,docosapentaenoate_n_225,C22H34O2
dchea_c,docosahexaenoate_n_226,C22H32O2
aracoa_c,arachidonoyl_n_204_CoA,C41H66N7O17P3S
ligno_c,lignoceric_n_240,C24H48O2
lignocoa_c,lignoceric_n_240_CoA,C47H82N7O17P3S
nerv_c,nervonic_n_241,C24H46O2
nervcoa_c,nevonic_n_241_CoA,C47H80N7O17P3S
cero_c,cerotic_n_260,C26H52O2
cerocoa_c,cerotic_n_260_CoA,C49H84N7O17P3S
ocdcdea_ap,octadecadienoate_n_C182,C18H31O2
ocdctea_ap,octadecatetraenoate_n_C184,C18H27O2
eic_ap,eicosanoic_n_200,C20H40O2
eiccoa_ap,eicosanoic_n_200_CoA,C41H74N7O17P3S1
icea_ap,icosenoate_n_C201,C20H37O2
icea_c,icosenoate_n_C201,C20H37O2
doco_ap,docosanoic_n_220,C22H44O2
dococoa_ap,docosanoic_n_200_CoA,C43H78N7O17P3S1
icdea_ap,icosadienoate_n_C202,C20H35O2
ictea_ap,icosatrienoate_n_C203,C20H33O2
icttea_ap,icosatetraenoate_n_C204,C20H31O2
dcttea_ap,docosatetraenoate_n_224,C22H35O2
dcpea_ap,docosapentaenoate_n_225,C22H33O2
dchea_ap,docosahexaenoate_n_226,C22H31O2
aracoa_ap,arachidonoyl_n_204_CoA,C41H66N7O17P3S
ligno_ap,lignoceric_n_240,C24H48O2
ligcoa_ap,lignoceric_n_240_CoA,C45H82N7O17P3S
ligcoa_c,lignoceric_n_240_CoA,C45H82N7O17P3S
nerv_ap,nervonic_n_241,C24H46O2
nervcoa_ap,nevonic_n_241_CoA,C45H80N7O17P3S
cero_ap,cerotic_n_260,C26H52O2
cerocoa_ap,cerotic_n_260_CoA,C47H86N7O17P3S1
11602140dgr_c,1_16:0_2_14:0_diacylglycerol,C33H64O5
11612140dgr_c,1_16:1_2_14:0_diacylglycerol,C33H62O5
11612160dgr_c,1_16:1_2_16:0_diacylglycerol,C35H68O5
11802160dgr_c,1_18:0_2_16:0_diacylglycerol,C37H72O5
11812160dgr_c,1_18:1_2_16:0_diacylglycerol,C37H72O5
11822160dgr_c,1_18:2_2_16:0_diacylglycerol,C37H68O5
11812161dgr_c,1_18:1_2_16:1_diacylglycerol,C37H68O5
11812180dgr_c,1_18:1_2_18:0_diacylglycerol,C39H70O5
11822180dgr_c,1_18:2_2_18:0_diacylglycerol,C41H68O5
11822181dgr_c,1_18:2_2_18:1_diacylglycerol,C41H66O5
11842180dgr_c,1_18:4_2_18:0_diacylglycerol,C41H64O5
12012180dgr_c,1_20:1_2_18:0_diacylglycerol,C41H78O5
12022180dgr_c,1_20:2_2_18:0_diacylglycerol,C41H76O5
12032180dgr_c,1_20:3_2_18:0_diacylglycerol,C41H74O5
12042180dgr_c,1_20:4_2_18:0_diacylglycerol,C41H72O5
12032181dgr_c,1_20:3_2_18:1_diacylglycerol,C41H72O5
12242180dgr_c,1_22:4_2_18:0_diacylglycerol,C43H76O5
12242181dgr_c,1_22:4_2_18:1_diacylglycerol,C43H74O5
12252180dgr_c,1_22:5_2_18:0_diacylglycerol,C43H74O5
12252181dgr_c,1_22:5_2_18:1_diacylglycerol,C43H72O5
12262180dgr_c,1_22:6_2_18:0_diacylglycerol,C43H70O5
11602140dgr_c,1_16:0_2_14:0_diacylglycerol,C31H68O5
11612140dgr_c,1_16:1_2_14:0_diacylglycerol,C31H66O5
11612160dgr_c,1_16:1_2_16:0_diacylglycerol,C33H72O5
11802160dgr_c,1_18:0_2_16:0_diacylglycerol,C35H76O5
11812160dgr_c,1_18:1_2_16:0_diacylglycerol,C35H74O5
11822160dgr_c,1_18:2_2_16:0_diacylglycerol,C35H72O5
11812161dgr_c,1_18:1_2_16:1_diacylglycerol,C35H72O5
11812180dgr_c,1_18:1_2_18:0_diacylglycerol,C37H74O5
11822180dgr_c,1_18:2_2_18:0_diacylglycerol,C39H72O5
11822181dgr_c,1_18:2_2_18:1_diacylglycerol,C39H70O5
11842180dgr_c,1_18:4_2_18:0_diacylglycerol,C39H68O5
12012180dgr_c,1_20:1_2_18:0_diacylglycerol,C39H82O5
12022180dgr_c,1_20:2_2_18:0_diacylglycerol,C39H80O5
12032180dgr_c,1_20:3_2_18:0_diacylglycerol,C39H78O5
12042180dgr_c,1_20:4_2_18:0_diacylglycerol,C39H76O5
12032181dgr_c,1_20:3_2_18:1_diacylglycerol,C39H76O5
12242180dgr_c,1_22:4_2_18:0_diacylglycerol,C41H80O5
12242181dgr_c,1_22:4_2_18:1_diacylglycerol,C41H78O5
12252180dgr_c,1_22:5_2_18:0_diacylglycerol,C41H78O5
12252181dgr_c,1_22:5_2_18:1_diacylglycerol,C41H76O5
12262180dgr_c,1_22:6_2_18:0_diacylglycerol,C41H74O5
pa11602140_c,1_16:0_2_14:0_phosphatidate,C33H63O8P1
pa11612140_c,1_16:1_2_14:0_phosphatidate,C33H61O8P1
pa11612160_c,1_16:1_2_16:0_phosphatidate,C35H65O8P1
pa11802160_c,1_18:0_2_16:0_phosphatidate,C37H71O8P1
pa11812160_c,1_18:1_2_16:0_phosphatidate,C37H69O8P1
pa11822160_c,1_18:2_2_16:0_phosphatidate,C37H67O8P1
pa11812161_c,1_18:1_2_16:1_phosphatidate,C37H67O8P1
pa11812180_c,1_18:1_2_18:0_phosphatidate,C39H73O8P1
pa11822180_c,1_18:2_2_18:0_phosphatidate,C39H71O8P1
pa11822181_c,1_18:2_2_18:1_phosphatidate,C39H69O8P1
pa11842180_c,1_18:4_2_18:0_phosphatidate,C39H67O8P1
pa12012180_c,1_20:1_2_18:0_phosphatidate,C41H77O8P1
pa12022180_c,1_20:2_2_18:0_phosphatidate,C41H75O8P1
pa12032180_c,1_20:3_2_18:0_phosphatidate,C41H73O8P1
pa12042180_c,1_20:4_2_18:0_phosphatidate,C41H71O8P1
pa12032181_c,1_20:3_2_18:1_phosphatidate,C41H71O8P1
pa12242180_c,1_22:4_2_18:0_phosphatidate,C43H73O8P1
pa12242181_c,1_22:4_2_18:1_phosphatidate,C43H71O8P1
pa12252180_c,1_22:5_2_18:0_phosphatidate,C43H71O8P1
pa12252181_c,1_22:5_2_18:1_phosphatidate,C43H69O8P1
pa12262180_c,1_22:6_2_18:0_phosphatidate,C43H69O8P1
cdp11602140g_c,1_16:0_2_14:0_CDP_glycerol,C42H77O15N3P2
cdp11612140g_c,1_16:1_2_14:0_CDP_glycerol,C42H75O15N3P2
cdp11612160g_c,1_16:1_2_16:0_CDP_glycerol,C44H79O15N3P2
cdp11802160g_c,1_18:0_2_16:0_CDP_glycerol,C44H79O15N3P2
cdp11812160g_c,1_18:1_2_16:0_CDP_glycerol,C46H85O15N3P2
cdp11822160g_c,1_18:2_2_16:0_CDP_glycerol,C46H83O15N3P2
cdp11812161g_c,1_18:1_2_16:1_CDP_glycerol,C46H83O15N3P2
cdp11812180g_c,1_18:1_2_18:0_CDP_glycerol,C48H87O15N3P2
cdp11822180g_c,1_18:2_2_18:0_CDP_glycerol,C48H85O15N3P2
cdp11822181g_c,1_18:2_2_18:1_CDP_glycerol,C48H83O15N3P2
cdp11842180g_c,1_18:4_2_18:0_CDP_glycerol,C48H81O15N3P2
cdp12012180g_c,1_20:1_2_18:0_CDP_glycerol,C50H91O15N3P2
cdp12022180g_c,1_20:2_2_18:0_CDP_glycerol,C50H89O15N3P2
cdp12032180g_c,1_20:3_2_18:0_CDP_glycerol,C50H87O15N3P2
cdp12042180g_c,1_20:4_2_18:0_CDP_glycerol,C50H85O15N3P2
cdp12032181g_c,1_20:3_2_18:1_CDP_glycerol,C50H85O15N3P2
cdp12242180g_c,1_22:4_2_18:0_CDP_glycerol,C52H83O15N3P2
cdp12242181g_c,1_22:4_2_18:1_CDP_glycerol,C52H81O15N3P2
cdp12252180g_c,1_22:5_2_18:0_CDP_glycerol,C52H81O15N3P2
cdp12252181g_c,1_22:5_2_18:1_CDP_glycerol,C52H79O15N3P2
cdp12262180g_c,1_22:6_2_18:0_CDP_glycerol,C52H79O15N3P2
ps11602140_c,1_16:0_2_14:0_phosphatidylserine,C36H70O10N1P1
ps11612140_c,1_16:1_2_14:0_phosphatidylserine,C36H68O10N1P1
ps11612160_c,1_16:1_2_16:0_phosphatidylserine,C38H72O10N1P1
ps11802160_c,1_18:0_2_16:0_phosphatidylserine,C40H78O10N1P1
ps11812160_c,1_18:1_2_16:0_phosphatidylserine,C40H76O10N1P1
ps11822160_c,1_18:2_2_16:0_phosphatidylserine,C40H74O10N1P1
ps11812161_c,1_18:1_2_16:1_phosphatidylserine,C40H74O10N1P1
ps11812180_c,1_18:1_2_18:0_phosphatidylserine,C42H80O10N1P1
ps11822180_c,1_18:2_2_18:0_phosphatidylserine,C42H78O10N1P1
ps11822181_c,1_18:2_2_18:1_phosphatidylserine,C42H76O10N1P1
ps11842180_c,1_18:4_2_18:0_phosphatidylserine,C42H74O10N1P1
ps12012180_c,1_20:1_2_18:0_phosphatidylserine,C44H84O10N1P1
ps12022180_c,1_20:2_2_18:0_phosphatidylserine,C44H82O10N1P1
ps12032180_c,1_20:3_2_18:0_phosphatidylserine,C44H80O10N1P1
ps12042180_c,1_20:4_2_18:0_phosphatidylserine,C44H78O10N1P1
ps12032181_c,1_20:3_2_18:1_phosphatidylserine,C44H78O10N1P1
ps12242180_c,1_22:4_2_18:0_phosphatidylserine,C46H82O10N1P1
ps12242181_c,1_22:4_2_18:1_phosphatidylserine,C46H80O10N1P1
ps12252180_c,1_22:5_2_18:0_phosphatidylserine,C46H80O10N1P1
ps12252181_c,1_22:5_2_18:1_phosphatidylserine,C46H78O10N1P1
ps12262180_c,1_22:6_2_18:0_phosphatidylserine,C46H78O10N1P1
ps11602140_c,1_16:0_2_14:0_phosphatidylserine,C36H69O8N1P1
ps11612140_c,1_16:1_2_14:0_phosphatidylserine,C36H67O8N1P1
ps11612160_c,1_16:1_2_16:0_phosphatidylserine,C38H71O8N1P1
ps11802160_c,1_18:0_2_16:0_phosphatidylserine,C40H77O8N1P1
ps11812160_c,1_18:1_2_16:0_phosphatidylserine,C40H75O8N1P2
ps11822160_c,1_18:2_2_16:0_phosphatidylserine,C40H73O8N1P2
ps11812161_c,1_18:1_2_16:1_phosphatidylserine,C40H73O8N1P2
ps11812180_c,1_18:1_2_18:0_phosphatidylserine,C42H79O8N1P1
ps11822180_c,1_18:2_2_18:0_phosphatidylserine,C42H77O8N1P1
ps11822181_c,1_18:2_2_18:1_phosphatidylserine,C42H75O8N1P1
ps11842180_c,1_18:4_2_18:0_phosphatidylserine,C42H73O8N1P1
ps12012180_c,1_20:1_2_18:0_phosphatidylserine,C44H83O8N1P1
ps12022180_c,1_20:2_2_18:0_phosphatidylserine,C44H81O8N1P1
ps12032180_c,1_20:3_2_18:0_phosphatidylserine,C44H79O8N1P1
ps12042180_c,1_20:4_2_18:0_phosphatidylserine,C44H77O8N1P1
ps12032181_c,1_20:3_2_18:1_phosphatidylserine,C44H77O8N1P1
ps12242180_c,1_22:4_2_18:0_phosphatidylserine,C46H81O8N1P1
ps12242181_c,1_22:4_2_18:1_phosphatidylserine,C46H79O8N1P1
ps12252180_c,1_22:5_2_18:0_phosphatidylserine,C46H79O8N1P1
ps12252181_c,1_22:5_2_18:1_phosphatidylserine,C46H77O8N1P1
ps12262180_c,1_22:6_2_18:0_phosphatidylserine,C46H77O8N1P1
pa11602140_ap,1_16:0_2_14:0_phosphatidate,C33H63O8P1
pa11612140_ap,1_16:1_2_14:0_phosphatidate,C33H61O8P1
pa11612160_ap,1_16:1_2_16:0_phosphatidate,C35H65O8P1
pa11802160_ap,1_18:0_2_16:0_phosphatidate,C37H71O8P1
pa11812160_ap,1_18:1_2_16:0_phosphatidate,C37H69O8P1
pa11822160_ap,1_18:2_2_16:0_phosphatidate,C37H67O8P1
pa11812161_ap,1_18:1_2_16:1_phosphatidate,C37H67O8P1
pa11812180_ap,1_18:1_2_18:0_phosphatidate,C39H73O8P1
pa11822180_ap,1_18:2_2_18:0_phosphatidate,C39H71O8P1
pa11822181_ap,1_18:2_2_18:1_phosphatidate,C39H69O8P1
pa11842180_ap,1_18:4_2_18:0_phosphatidate,C39H67O8P1
pa12012180_ap,1_20:1_2_18:0_phosphatidate,C41H77O8P1
pa12022180_ap,1_20:2_2_18:0_phosphatidate,C41H75O8P1
pa12032180_ap,1_20:3_2_18:0_phosphatidate,C41H73O8P1
pa12042180_ap,1_20:4_2_18:0_phosphatidate,C41H71O8P1
pa12032181_ap,1_20:3_2_18:1_phosphatidate,C41H71O8P1
pa12242181_ap,1_22:4_2_18:1_phosphatidate,C43H71O8P1
pa12252180_ap,1_22:5_2_18:0_phosphatidate,C43H71O8P1
pa12252181_ap,1_22:5_2_18:1_phosphatidate,C43H69O8P1
pe11602140_c,1_16:0_2_14:0_phosphatidylethanolamine,C35H70O8N1P1
pe11602160_c,1_16:0_2_16:0_phosphatidylethanolamine,C37H74O8N1P1
pe11612140_c,1_16:1_2_14:0_phosphatidylethanolamine,C35H68O8N1P1
pe11612160_c,1_16:1_2_16:0_phosphatidylethanolamine,C37H72O8N1P1
pe11802160_c,1_18:0_2_16:0_phosphatidylethanolamine,C39H78O8N1P1
pe11812160_c,1_18:1_2_16:0_phosphatidylethanolamine,C39H76O8N1P1
pe11822160_c,1_18:2_2_16:0_phosphatidylethanolamine,C39H74O8N1P1
pe11812161_c,1_18:1_2_16:1_phosphatidylethanolamine,C39H74O8N1P1
pe11812180_c,1_18:1_2_18:0_phosphatidylethanolamine,C41H80O8N1P1
pe11822180_c,1_18:2_2_18:0_phosphatidylethanolamine,C41H78O8N1P1
pe11822181_c,1_18:2_2_18:1_phosphatidylethanolamine,C41H76O8N1P1
pe11842180_c,1_18:4_2_18:0_phosphatidylethanolamine,C41H74O8N1P1
pe12012180_c,1_20:1_2_18:0_phosphatidylethanolamine,C43H84O8N1P1
pe12022180_c,1_20:2_2_18:0_phosphatidylethanolamine,C43H82O8N1P1
pe12032180_c,1_20:3_2_18:0_phosphatidylethanolamine,C43H80O8N1P1
pe12042180_c,1_20:4_2_18:0_phosphatidylethanolamine,C43H78O8N1P1
pe12032181_c,1_20:3_2_18:1_phosphatidylethanolamine,C43H78O8N1P1
pe12242180_c,1_22:4_2_18:0_phosphatidylethanolamine,C45H82O8N1P1
pe12242181_c,1_22:4_2_18:1_phosphatidylethanolamine,C45H80O8N1P1
pe12252180_c,1_22:5_2_18:0_phosphatidylethanolamine,C45H80O8N1P1
pe12252181_c,1_22:5_2_18:1_phosphatidylethanolamine,C45H78O8N1P1
pe12262180_c,1_22:6_2_18:0_phosphatidylethanolamine,C45H78O8N1P1
11802160ptd1ino_c,1_18:0_2_16:0_phosphatidyl_1D_myo_inositol,C44H85O13P1
11812160ptd1ino_c,1_18:1_2_16:0_phosphatidyl_1D_myo_inositol,C44H83O13P1
11812180ptd1ino_c,1_18:1_2_18:0_phosphatidyl_1D_myo_inositol,C46H87O13P1
11822180ptd1ino_c,1_18:2_2_18:0_phosphatidyl_1D_myo_inositol,C46H85O13P1
11822181ptd1ino_c,1_18:2_2_18:1_phosphatidyl_1D_myo_inositol,C46H83O13P1
11842180ptd1ino_c,1_18:4_2_18:0_phosphatidyl_1D_myo_inositol,C46H81O13P1
12032180ptd1ino_c,1_20:3_2_18:0_phosphatidyl_1D_myo_inositol,C48H87O13P1
12042180ptd1ino_c,1_20:4_2_18:0_phosphatidyl_1D_myo_inositol,C48H85O13P1
12032181ptd1ino_c,1_20:3_2_18:1_phosphatidyl_1D_myo_inositol,C48H85O13P1
12252181ptd1ino_c,1_22:5_2_18:1_phosphatidyl_1D_myo_inositol,C50H85O13P1
12262180ptd1ino_c,1_22:6_2_18:0_phosphatidyl_1D_myo_inositol,C50H85O13P1
11802160ptd3ino_c,1_18:0_2_16:0_phosphatidyl_1D_myo_inositol_3_phosphate,C44H86O16P2
11812160ptd3ino_c,1_18:1_2_16:0_phosphatidyl_1D_myo_inositol_3_phosphate,C44H84O16P2
11812180ptd3ino_c,1_18:1_2_18:0_phosphatidyl_1D_myo_inositol_3_phosphate,C46H88O16P2
11822180ptd3ino_c,1_18:2_2_18:0_phosphatidyl_1D_myo_inositol_3_phosphate,C46H86O16P2
11822181ptd3ino_c,1_18:2_2_18:1_phosphatidyl_1D_myo_inositol_3_phosphate,C46H84O16P2
11842180ptd3ino_c,1_18:4_2_18:0_phosphatidyl_1D_myo_inositol_3_phosphate,C46H82O16P2
12032180ptd3ino_c,1_20:3_2_18:0_phosphatidyl_1D_myo_inositol_3_phosphate,C48H88O16P2
12042180ptd3ino_c,1_20:4_2_18:0_phosphatidyl_1D_myo_inositol_3_phosphate,C48H86O16P2
12032181ptd3ino_c,1_20:3_2_18:1_phosphatidyl_1D_myo_inositol_3_phosphate,C48H86O16P2
12252181ptd3ino_c,1_22:5_2_18:1_phosphatidyl_1D_myo_inositol_3_phosphate,C50H86O16P2
12262180ptd3ino_c,1_22:6_2_18:0_phosphatidyl_1D_myo_inositol_3_phosphate,C50H86O16P2
11802160ptd4ino_c,1_18:0_2_16:0_phosphatidyl_1D_myo_inositol_4_phosphate,C44H86O16P2
11812160ptd4ino_c,1_18:1_2_16:0_phosphatidyl_1D_myo_inositol_4_phosphate,C44H84O16P2
11812180ptd4ino_c,1_18:1_2_18:0_phosphatidyl_1D_myo_inositol_4_phosphate,C46H88O16P2
11822180ptd4ino_c,1_18:2_2_18:0_phosphatidyl_1D_myo_inositol_4_phosphate,C46H86O16P2
11822181ptd4ino_c,1_18:2_2_18:1_phosphatidyl_1D_myo_inositol_4_phosphate,C46H84O16P2
11842180ptd4ino_c,1_18:4_2_18:0_phosphatidyl_1D_myo_inositol_4_phosphate,C46H82O16P2
12032180ptd4ino_c,1_20:3_2_18:0_phosphatidyl_1D_myo_inositol_4_phosphate,C48H88O16P2
12042180ptd4ino_c,1_20:4_2_18:0_phosphatidyl_1D_myo_inositol_4_phosphate,C48H86O16P2
12032181ptd4ino_c,1_20:3_2_18:1_phosphatidyl_1D_myo_inositol_4_phosphate,C48H86O16P2
12252181ptd4ino_c,1_22:5_2_18:1_phosphatidyl_1D_myo_inositol_4_phosphate,C50H86O16P2
12262180ptd4ino_c,1_22:6_2_18:0_phosphatidyl_1D_myo_inositol_4_phosphate,C50H86O16P2
11802160ptd34inobp_c,1_18:0_2_16:0_phosphatidyl_1D_myo_inositol_34_biphosphate,C44H87O19P3
11812160ptd34inobp_c,1_18:1_2_16:0_phosphatidyl_1D_myo_inositol_34_biphosphate,C44H85O19P3
11812180ptd34inobp_c,1_18:1_2_18:0_phosphatidyl_1D_myo_inositol_34_biphosphate,C46H89O19P3
11822180ptd34inobp_c,1_18:2_2_18:0_phosphatidyl_1D_myo_inositol_34_biphosphate,C46H87O19P3
11822181ptd34inobp_c,1_18:2_2_18:1_phosphatidyl_1D_myo_inositol_34_biphosphate,C46H85O19P3
11842180ptd34inobp_c,1_18:4_2_18:0_phosphatidyl_1D_myo_inositol_34_biphosphate,C46H83O19P3
12032180ptd34inobp_c,1_20:3_2_18:0_phosphatidyl_1D_myo_inositol_34_biphosphate,C48H89O19P3
12042180ptd34inobp_c,1_20:4_2_18:0_phosphatidyl_1D_myo_inositol_34_biphosphate,C48H87O19P3
12032181ptd34inobp_c,1_20:3_2_18:1_phosphatidyl_1D_myo_inositol_34_biphosphate,C48H87O19P3
12252181ptd34inobp_c,1_22:5_2_18:1_phosphatidyl_1D_myo_inositol_34_biphosphate,C50H87O19P3
12262180ptd34inobp_c,1_22:6_2_18:0_phosphatidyl_1D_myo_inositol_34_biphosphate,C50H87O19P3
11802160ptd45inobp_c,1_18:0_2_16:0_phosphatidyl_1D_myo_inositol_45_biphosphate,C44H87O19P3
11812160ptd45inobp_c,1_18:1_2_16:0_phosphatidyl_1D_myo_inositol_45_biphosphate,C44H85O19P3
11812180ptd45inobp_c,1_18:1_2_18:0_phosphatidyl_1D_myo_inositol_45_biphosphate,C46H89O19P3
11822180ptd45inobp_c,1_18:2_2_18:0_phosphatidyl_1D_myo_inositol_45_biphosphate,C46H87O19P3
11822181ptd45inobp_c,1_18:2_2_18:1_phosphatidyl_1D_myo_inositol_45_biphosphate,C46H85O19P3
11842180ptd45inobp_c,1_18:4_2_18:0_phosphatidyl_1D_myo_inositol_45_biphosphate,C46H83O19P3
12032180ptd45inobp_c,1_20:3_2_18:0_phosphatidyl_1D_myo_inositol_45_biphosphate,C48H89O19P3
12042180ptd45inobp_c,1_20:4_2_18:0_phosphatidyl_1D_myo_inositol_45_biphosphate,C48H87O19P3
12032181ptd45inobp_c,1_20:3_2_18:1_phosphatidyl_1D_myo_inositol_45_biphosphate,C48H87O19P3
12252181ptd45inobp_c,1_22:5_2_18:1_phosphatidyl_1D_myo_inositol_45_biphosphate,C50H87O19P3
12262180ptd45inobp_c,1_22:6_2_18:0_phosphatidyl_1D_myo_inositol_45_biphosphate,C50H87O19P3
11802160ptd345inotp_c,1_18:0_2_16:0_phosphatidyl_1D_myo_inositol_345_triphosphate,C44H88O22P4
11812160ptd345inotp_c,1_18:1_2_16:0_phosphatidyl_1D_myo_inositol_345_triphosphate,C44H86O22P4
11812180ptd345inotp_c,1_18:1_2_18:0_phosphatidyl_1D_myo_inositol_345_triphosphate,C46H90O22P4
11822180ptd345inotp_c,1_18:2_2_18:0_phosphatidyl_1D_myo_inositol_345_triphosphate,C46H88O22P4
11822181ptd345inotp_c,1_18:2_2_18:1_phosphatidyl_1D_myo_inositol_345_triphosphate,C46H86O22P4
11842180ptd345inotp_c,1_18:4_2_18:0_phosphatidyl_1D_myo_inositol_345_triphosphate,C46H84O22P4
12032180ptd345inotp_c,1_20:3_2_18:0_phosphatidyl_1D_myo_inositol_345_triphosphate,C48H90O22P4
12042180ptd345inotp_c,1_20:4_2_18:0_phosphatidyl_1D_myo_inositol_345_triphosphate,C48H88O22P4
12032181ptd345inotp_c,1_20:3_2_18:1_phosphatidyl_1D_myo_inositol_345_triphosphate,C48H88O22P4
12252181ptd345inotp_c,1_22:5_2_18:1_phosphatidyl_1D_myo_inositol_345_triphosphate,C50H88O22P4
12262180ptd345inotp_c,1_22:6_2_18:0_phosphatidyl_1D_myo_inositol_345_triphosphate,C50H88O22P4
1180lysoptd1ino_c,1_18:0_lysophosphatidyl_1D_myo_inositol,C28H42O12P1
1160lysoptd1ino_c,1_16:0_lysophosphatidyl_1D_myo_inositol,C26H38O12P1
1204lysoptd1ino_c,1_20:4_lysophosphatidyl_1D_myo_inositol,C30H38O12P1
116021403180tgr_c,1_16:0_2_14:0_3_18:0_triacylglycerol,C51H94O6
116021403181tgr_c,1_16:0_2_14:0_3_18:1_triacylglycerol,C51H96O6
116021603180tgr_c,1_16:0_2_16:0_3_18:0_triacylglycerol,C53H102O6
116121603180tgr_c,1_16:1_2_16:0_3_18:0_triacylglycerol,C53H100O6
116121603181tgr_c,1_16:1_2_16:0_3_18:1_triacylglycerol,C53H98O6
116121603204tgr_c,1_16:1_2_16:0_3_20:4_triacylglycerol,C55H96O6
116121603182tgr_c,1_16:1_2_16:0_3_18:2_triacylglycerol,C53H96O6
118021603180tgr_c,1_18:0_2_16:0_3_18:0_triacylglycerol,C55H106O6
118021603204tgr_c,1_18:0_2_16:0_3_20:4_triacylglycerol,C57H102O6
118021803180tgr_c,1_18:0_2_18:0_3_18:0_triacylglycerol,C57H110O6
118121603180tgr_c,1_18:1_2_16:0_3_18:0_triacylglycerol,C55H104O6
118121603204tgr_c,1_18:1_2_16:0_3_20:4_triacylglycerol,C57H100O6
118121613204tgr_c,1_18:1_2_16:1_3_20:4_triacylglycerol,C57H98O6
118121613180tgr_c,1_18:1_2_16:1_3_18:0_triacylglycerol,C55H102O6
118121613181tgr_c,1_18:1_2_16:1_3_18:1_triacylglycerol,C55H100O6
118221603181tgr_c,1_18:2_2_16:0_3_18:1_triacylglycerol,C55H100O6
118121803180tgr_c,1_18:1_2_18:0_3_18:0_triacylglycerol,C57H108O6
118121803204tgr_c,1_18:1_2_18:0_3_20:4_triacylglycerol,C59H104O6
118221803180tgr_c,1_18:2_2_18:0_3_18:0_triacylglycerol,C57H106O6
118221803182tgr_c,1_18:2_2_18:0_3_18:2_triacylglycerol,C57H102O6
118221803204tgr_c,1_18:2_2_18:0_3_20:4_triacylglycerol,C59H106O6
118221813161tgr_c,1_18:2_2_18:1_3_16:1_triacylglycerol,C55H104O6
118221813180tgr_c,1_18:2_2_18:1_3_18:0_triacylglycerol,C57H110O6
118221813181tgr_c,1_18:2_2_18:1_3_18:1_triacylglycerol,C57H108O6
118221813182tgr_c,1_18:2_2_18:1_3_18:2_triacylglycerol,C57H106O6
118221813204tgr_c,1_18:2_2_18:1_3_20:4_triacylglycerol,C59H106O6
118421803204tgr_c,1_18:4_2_18:0_3_20:4_triacylglycerol,C59H104O6
118421803181tgr_c,1_18:4_2_18:0_3_18:1_triacylglycerol,C57H103O6
120321803204tgr_c,1_20:3_2_18:0_3_20:4_triacylglycerol,C61H104O6
120421803160tgr_c,1_20:4_2_18:0_3_16:0_triacylglycerol,C57H102O6
120421803181tgr_c,1_20:4_2_18:0_3_18:1_triacylglycerol,C59H104O6
122621803182tgr_c,1_22:6_2_18:0_3_18:2_triacylglycerol,C61H103O6
dhcrm160_c,C16:0_dihydroceramide,C34H69N1O3
dhcrm180_c,C18:0_dihydroceramide,C36H73N1O3
dhcrm181_c,C18:1_dihydroceramide,C36H71N1O3
dhcrm200_c,C20:0_dihydroceramide,C38H77N1O3
dhcrm220_c,C22:0_dihydroceramide,C40H81N1O3
dhcrm240_c,C24:0_dihydroceramide,C42H85N1O3
dhcrm241_c,C24:1_dihydroceramide,C42H83N1O3
dhcrm260_c,C26:0_dihydroceramide,C44H89N1O3
crm160_c,C16:0_ceramide,C34H67N1O3
crm180_c,C18:0_ceramide,C36H71N1O3
crm181_c,C18:1_ceramide,C36H69N1O3
crm200_c,C20:0_ceramide,C38H75N1O3
crm220_c,C22:0_ceramide,C40H79N1O3
crm240_c,C24:0_ceramide,C42H83N1O3
crm241_c,C24:1_ceramide,C42H81N1O3
crm260_c,C26:0_ceramide,C44H87N1O3
sphmyln160_c,C16:0_sphingomyelin,C39H81N2O6P1
sphmyln180_c,C18:0_sphingomyelin,C41H85N2O6P1
sphmyln181_c,C18:1_sphingomyelin,C41H83N2O6P1
sphmyln200_c,C20:0_sphingomyelin,C43H89N2O6P1
sphmyln220_c,C22:0_sphingomyelin,C45H93N2O6P1
sphmyln240_c,C24:0_sphingomyelin,C47H97N2O6P1
sphmyln241_c,C24:1_sphingomyelin,C47H95N2O6P1
sphmyln260_c,C26:0_sphingomyelin,C49H101N2O6P1
g3pc_c,glycerophosphocholine,C8H20N1O6P1
g3pc_e,glycerophosphocholine,C8H20N1O6P1
g3pi_c,sn-glycero-3-Phospho-1-inositol,C9H18O11P
g3pi_e,sn-glycero-3-Phospho-1-inositol,C9H18O11P
g3ps_c,Glycerophosphoserine,C6H13NO8P
g3ps_e,Glycerophosphoserine,C6H13NO8P
11602140pc_c,1_16:0_2_14:0_phosphatidylcholine,C38H77O8N1P1
11602160pc_c,1_16:0_2_16:0_phosphatidylcholine,C40H81O8N1P1
11612160pc_c,1_16:1_2_16:0_phosphatidylcholine,C40H79O8N1P1
11802160pc_c,1_18:0_2_16:0_phosphatidylcholine,C42H85O8N1P1
11802180pc_c,1_18:0_2_18:0_phosphatidylcholine,C44H89O8N1P1
11812160pc_c,1_18:1_2_16:0_phosphatidylcholine,C42H83O8N1P1
11822160pc_c,1_18:2_2_16:0_phosphatidylcholine,C42H81O8N1P1
11812161pc_c,1_18:1_2_16:1_phosphatidylcholine,C42H81O8N1P1
11812180pc_c,1_18:1_2_18:0_phosphatidylcholine,C44H87O8N1P1
11822180pc_c,1_18:2_2_18:0_phosphatidylcholine,C44H85O8N1P1
11822181pc_c,1_18:2_2_18:1_phosphatidylcholine,C44H83O8N1P1
11842180pc_c,1_18:4_2_18:0_phosphatidylcholine,C44H81O8N1P1
12012180pc_c,1_20:1_2_18:0_phosphatidylcholine,C46H91O8N1P1
12032180pc_c,1_20:3_2_18:0_phosphatidylcholine,C46H87O8N1P1
12042180pc_c,1_20:4_2_18:0_phosphatidylcholine,C46H85O8N1P1
12032181pc_c,1_20:3_2_18:1_phosphatidylcholine,C46H85O8N1P1
12242180pc_c,1_22:4_2_18:0_phosphatidylcholine,C48H89O8N1P1
12242181pc_c,1_22:4_2_18:1_phosphatidylcholine,C48H87O8N1P1
12252180pc_c,1_22:5_2_18:0_phosphatidylcholine,C48H87O8N1P1
12252181pc_c,1_22:5_2_18:1_phosphatidylcholine,C48H85O8N1P1
12262180pc_c,1_22:6_2_18:0_phosphatidylcholine,C48H85O8N1P1
pgp11612160_c,1_16:1_2_16:0_phosphatidylglycerophosphate,C38H74O13P2
pgp11802160_c,1_18:0_2_16:0_phosphatidylglycerophosphate,C40H80O13P2
pgp11812160_c,1_18:1_2_16:0_phosphatidylglycerophosphate,C40H78O13P2
pgp11822160_c,1_18:2_2_16:0_phosphatidylglycerophosphate,C40H76O13P2
pgp11812161_c,1_18:1_2_16:1_phosphatidylglycerophosphate,C40H76O13P2
pgp11812180_c,1_18:1_2_18:0_phosphatidylglycerophosphate,C42H82O13P2
pgp11822180_c,1_18:2_2_18:0_phosphatidylglycerophosphate,C42H80O13P2
pgp11822181_c,1_18:2_2_18:1_phosphatidylglycerophosphate,C42H78O13P2
pgp12032180_c,1_20:3_2_18:0_phosphatidylglycerophosphate,C44H82O13P2
pgp12032181_c,1_20:3_2_18:1_phosphatidylglycerophosphate,C44H80O13P2
pgp12042180_c,1_20:4_2_18:0_phosphatidylglycerophosphate,C44H80O13P2
pg11612160_c,1_16:1_2_16:0_phosphatidylglycerol,C38H73O10P1
pg11802160_c,1_18:0_2_16:0_phosphatidylglycerol,C40H79O10P1
pg11812160_c,1_18:1_2_16:0_phosphatidylglycerol,C40H77O10P1
pg11822160_c,1_18:2_2_16:0_phosphatidylglycerol,C40H75O10P1
pg11812161_c,1_18:1_2_16:1_phosphatidylglycerol,C40H75O10P1
pg11812180_c,1_18:1_2_18:0_phosphatidylglycerol,C42H81O10P1
pg11822180_c,1_18:2_2_18:0_phosphatidylglycerol,C42H79O10P1
pg11822181_c,1_18:2_2_18:1_phosphatidylglycerol,C42H77O10P1
pg12032180_c,1_20:3_2_18:0_phosphatidylglycerol,C44H81O10P1
pg12042180_c,1_20:4_2_18:0_phosphatidylglycerol,C44H79O10P1
pg12032181_c,1_20:3_2_18:1_phosphatidylglycerol,C44H79O10P1
ptd345inotp_c,phosphatidylinositol_345_triphosphate,
ptd34inobp_c,phosphatidylinositol_34_biphosphate,
1180lysoptd1ino_c,1_18:0_lysophosphatidylinositol,C27H52O12P1
1204lysoptd1ino_c,1_20:4_lysophosphatidylinositol,C29H48O12P1
1160lysoptd1ino_c,1_16:0_lysophosphatidylinositol,C25H48O12P1
160lpchol_c,1_16:0_lysophosphatidylcholine,C24H51NO7P1
180lpchol_c,1_18:0_lysophosphatidylcholine,C26H55NO7P1
181lpchol_c,1_18:1_lysophosphatidylcholine,C26H53NO7P1
203lpchol_c,1_20:3_lysophosphatidylcholine,C28H53NO7P1
204lpchol_c,1_20:4_lysophosphatidylcholine,C28H51NO7P1
xolest140_c,14:0_cholersteryl_ester,C41H72O2
xolest160_c,16:0_cholersteryl_ester,C43H76O2
xolest161_c,16:1_cholersteryl_ester,C43H74O2
xolest180_c,18:0_cholersteryl_ester,C45H80O2
xolest181_c,18:1_cholersteryl_ester,C45H78O2
xolest182_c,18:2_cholersteryl_ester,C45H76O2
xolest184_c,18:4_cholersteryl_ester,C45H72O2
xolest201_c,20:1_cholersteryl_ester,C47H82O2
xolest203_c,20:3_cholersteryl_ester,C47H78O2
xolest204_c,20:4_cholersteryl_ester,C47H76O2
xolest224_c,22:4_cholersteryl_ester,C49H80O2
xolest225_c,22:5_cholersteryl_ester,C49H78O2
xolest226_c,22:6_cholersteryl_ester,C49H76O2
xolest_c,cholersteryl_ester,
chsterol_c,cholesterol,C27H46O1
chsterol_e,cholesterol,C27H46O1
pg_c,phosphatidylglycerol,
sphmyln_e,sphingomyelin,
sphmyln_host_c,sphingomyelin,
1160g3p_c,16:0_glycerol_3_phosphate,C19H39O7P1
1161g3p_c,16:1_glycerol_3_phosphate,C19H37O7P1
clpn120_c,12:0_cardiolipin,C57H110O17P2
clpn140_c,14:0_cardiolipin,C65H126O17P2
clpn141_c,14:1_cardiolipin,C65H118O17P2
clpn160_c,16:0_cardiolipin,C73H142O17P2
clpn161_c,16:1_cardiolipin,C73H134O17P2
clpn180_c,18:0_cardiolipin,C81H158O17P2
3onervcoa_ap,24:1_3-ketoacyl-CoA,C45H78N7O18P3S
3hnervcoa_ap,24:1_3-hydroxyacyl-CoA,C45H80N7O18P3S
nerv2coa_ap,24:1_trans_23_dehydroacyl_CoA,C45H78N7O17P3S
3oodcoa_ap,18:0_3-ketoacyl-CoA,C39H64N7O18P3S1
3hodcoa_ap,18:0_3-hydroxyacyl-CoA,C39H66N7O18P3S1
od2coa_ap,18:0_trans_23_dehydroacyl_CoA,C39H64N7O17P3S1
3oodecoa_ap,18:1_3-ketoacyl-CoA,C39H62N7O18P3S1
3hodecoa_ap,18:1_3-hydroxyacyl-CoA,C39H64N7O18P3S1
ode2coa_ap,18:1_trans_23_dehydroacyl_CoA,C39H62N7O17P3S1
3oeiccoa_ap,20:0_3-ketoacyl-CoA,C41H72N7O18P3S1
3heiccoa_ap,20:0_3-hydroxyacyl-CoA,C41H74N7O18P3S1
eic2coa_ap,20:0_trans_23_dehydroacyl_CoA,C41H72N7O17P3S1
3oicecoa_ap,20:1_3-ketoacyl-CoA,C41H70N7O18P3S1
3hicecoa_ap,20:1_3-hydroxyacyl-CoA,C41H72N7O18P3S1
ice2coa_ap,20:1_trans_23_dehydroacyl_CoA,C41H72N7O17P3S1
3odoccoa_ap,22:0_3-ketoacyl-CoA,C43H76N7O18P3S1
3hdoccoa_ap,22:0_3-hydroxyacyl-CoA,C43H78N7O18P3S1
doc2coa_ap,22:0_trans_23_dehydroacyl_CoA,C43H76N7O17P3S1
3oligcoa_ap,24:0_3-ketoacyl-CoA,C45H80N7O18P3S1
3hligcoa_ap,24:0_3-hydroxyacyl-CoA,C45H82N7O18P3S1
lig2coa_ap,24:0_trans_23_dehydroacyl_CoA,C45H80N7O17P3S1
3odocoecoa_ap,22:1_3-ketoacyl-CoA,C43H74N7O18P3S1
3hdocoecoa_ap,22:1_3-hydroxyacyl-CoA,C43H76N7O18P3S1
docoe2coa_ap,22:1_trans_23_dehydroacyl_CoA,C43H74N7O17P3S1
3ocerocoa_ap,26:0_3-ketoacyl-CoA,C47H84N7O18P3S1
3hcerocoa_ap,26:0_3-hydroxyacyl-CoA,C47H86N7O18P3S1
cero2coa_ap,26:0_trans_23_dehydroacyl_CoA,C47H84N7O17P3S1
pail_e,phosphatidylinositol,
pail_e,pail_e,
adpr_e,ADPribose,C15H21N5O14P2
adpr_c,ADPribose,C15H21N5O14P2
g3pc_e,glycerophosphocholine,
g3pi_e,sn-glycero-3-Phospho-1-inositol,
g3ps_e,glycerophosphoserine,
dolichol_e,dolichol,
seln_e,selenide,H2Se1
2agpe120_e,2_12:0_lysophosphatidylethanolamine,C17H36NO7P1
2agpe140_e,2_14:0_lysophosphatidylethanolamine,C19H40NO7P1
2agpe141_e,2_14:1_lysophosphatidylethanolamine,C19H38NO7P1
2agpe160_e,2_16:0_lysophosphatidylethanolamine,C21H44NO7P1
2agpe161_e,2_16:1_lysophosphatidylethanolamine,C21H42NO7P1
2agpe180_e,2_18:0_lysophosphatidylethanolamine,C23H48NO7P1
2agpe181_e,2_18:1_lysophosphatidylethanolamine,C23H46NO7P1
2agpg120_e,2_12:0_lysophosphatidylglycerol,C18H36O9P1
2agpg140_e,2_14:0_lysophosphatidylglycerol,C20H40O9P1
2agpg141_e,2_14:1_lysophosphatidylglycerol,C20H38O9P1
2agpg160_e,2_16:0_lysophosphatidylglycerol,C22H44O9P1
2agpg161_e,2_16:1_lysophosphatidylglycerol,C22H42O9P1
2agpg180_e,2_18:0_lysophosphatidylglycerol,C24H48O9P1
2agpg181_e,2_18:1_lysophosphatidylglycerol,C24H46O9P1
2ddecg3p_e,2-dodecanoyl-sn-glycerol 3-phosphate,C15H30O7P1
gdp_ap,Guanosine dinophosphate ,C10H13N5O11P2
gtp_ap,Guanosine trinophosphate ,C10H16N5O14P3
mi13456p_e,Inositol_13456_pentakisphosphate,C6H12O21P5
mi1345p_e,Inositol_1346_tetrakisphosphate,C6H12O18P4
mi134p_e,inositol_134_trisphosphate,C6H12O15P3
mi1456p_e,inositol_1456_tetrakisphosphate,C6H12O18P4
mi145p_e,inositol_145_trisphosphate,C6H12O15P3
mi14p_e,inositol_14_bisphosphate,C6H12O12P2
mi1p_D_e,inositol_1_phosphate,C6H11O9P1
mi34p_e,Inositol_34_bisphosphate,C6H12O12P2
mi4p_D_e,Inositol_4_phosphate,C6H11O9P1
dimp_e,dIMP,C10H11N4O7P
apoACP_ap,ApoproteinACP,
pap_ap,Adenosine_35_bisphosphate,C10H11N5O10P2
acACP_ap,acetylACP,
citrul_c,citrulline,C6H13N3O3
hcys_e,hcys_e,C4H9NO2S1
lald_D_c,D_Lactaldehyde,C3H6O2
udcpdp_c,bactoprenyl_diphosphate,C55H90O7P2
15dap_c,cadaverine,C5H16N2
argtrna_c,L_Arginyl_tRNA,
fadh2_c,FADH2,C27H33N9O15P2
nh3_c,NH3,H4N1
glu_L_ap,L_Glutamate,C5H8NO4
akg_ap,2_Oxoglutarate,C5H4O5
nh3_ap,NH3,H4N1
naglc2p_L_c,N_Acetyl_D_glucosaminyldiphosphodolichol,
pheme_fv,heme,C34H30FeN4O4
psertrna_sec_c,psertrna_sec_c,
sectrna_c,L_Selenocysteinyl_tRNA(Sec),
trptrna_c,L_Tryptophanyl_tRNA(Trp),
34hpp_c,p_hydroxyphenylpyruvate,C9H7O4
glntrna_c,Gln_tRNA(Gln),
s7p_c,Sedoheptulose7_phosphate,C7H13O10P1
dcmp_c,dCMP,C9H12N3O7P1
mmet_c,S_Methyl_L_methionine,C6H14NO2S1
hemozoin_fv,hemozoin,C272H240Fe8N32O32
hemozoin_e,hemozoin,C272H240Fe8N32O32
gluside_e,gluside_e,
lac_L_e,L_Lactate,C3H5O3
sperm_c,spermidine,C7H22N3
fol_c,folate,C19H17N7O6
asntrna_c,Asn_tRNA(Asn),
phetrna_c,L_Phenylalany_tRNA(Phe),
tag6p_D_c,D_Tagatose_6_phosphate,C6H11O9P
tagdp_D_c,Dtagatose_16_biphosphate,C6H10O12P2
protrna_c,L_Prolyl_tRNA(Pro),
asptrna_c,L_Aspartyl_tRNA(Asp),
glytrna_c,Glycyl_tRNA(Gly),
lystrna_c,L_Lysine_tRNA(Lys),
gp4g_c,GppppG,C20H24N10O21P4
ap4a_c,AppppA,C20H24N10O19P4
progly_e,L_Prolinylglycine,C7H11N2O3
idp_c,IDP,C10H12N4O11P2
sphmyln_e,sphingomyelin,
sphmyln_host_c,sphingomyelin,
hmfurn_c,4_hydroxy_5_methyl_3_2H_furanone,C5H5O3
o2s_c,O2-,O2
o2s_m,O2-,O2
gthox_ap,oxidized_glutathione,C20H30N6O12S2
gthrd_ap,oxidized_glutathione,C20H30N6O12S2
h2o2_ap,H2O2,H2O2
all_pc_c,all_phoshphatidylcholines,
all_pe_c,all_phoshphatidylethanolamines,
all_ps_c,all_phoshphatidyserines,
all_pi_c,all_phoshphatidylinositols,
all_pg_c,all_phoshphatidylglycerols,
all_apg_c,all_acylphoshphatidylglycerols,
all_dgl_c,all_diglycerides,
acoa_c,acyl-CoA,
fadh2_ap,FADH2,C27H33N9O15P2
fadh2_c,FADH2,C27H33N9O15P2
fad_ap,Flavin_adenine_dinucleotide_oxidized,C27H31N9O15P2
atp_ap,ATP,C10H16N5O13P3
atp_c,ATP,C10H16N5O13P3
atp_m,ATP,C10H16N5O13P3
adp_ap,ADP,C10H15N5O10P2
adp_c,ADP,C10H15N5O10P2
adp_m,ADP,C10H15N5O10P2
amp_ap,AMP,C10H14N5O7P1
amp_c,AMP,C10H14N5O7P1
amp_m,AMP,C10H14N5O7P1
cdp_c,CDP,C9H12N3O11P2
cmp_c,CMP,C9H14N3O8P1
pi_ap,Phosphate,H3O4P1
pi_c,Phosphate,H3O4P1
pi_e,Phosphate,H3O4P1
pi_m,Phosphate,H3O4P1
dgdp_c,dGDP,C10H15N5O10P2
dgmp_c,dGMP,C10H14N5O7P1
ocdca_ap,octadecanoate_n_C180,C18H36O2
ocdca_c,octadecanoate_n_C180,C18H36O2
ocdca_e,octadecanoate_n_C180,C18H36O2
ocdcea_ap,octadecenoate_n_C181,C18H34O2
ocdcea_c,octadecenoate_n_C181,C18H34O2
ocdcea_e,octadecenoate_n_C181,C18H34O2
lpe_c,lysophosphatidylethanolamine_generic,
lpg_c,lysophosphatidylglycerol_generic,
ps_c,phosphatidylserine_generic,
glyc3p_ap,Glycerol_3_phosphate,C3H9O6P1
glyc3p_c,Glycerol_3_phosphate,C3H9O6P1
glyc3p_m,Glycerol_3_phosphate,C3H9O6P1
cholp_c,Choline_phosphate,C5H15NO4P1
glyc3p_ap,Glycerol_3_phosphate,C3H9O6P1
glyc3p_c,Glycerol_3_phosphate,C3H9O6P1
glyc3p_m,Glycerol_3_phosphate,C3H9O6P1
1160mgr_c,1_16:0_acylglycerol,C19H38O4
1161mgr_c,1_16:1_acylglycerol,C19H36O4
1180mgr_c,1_18:0_acylglycerol,C21H42O4
1181mgr_c,1_18:1_acylglycerol,C21H40O4
1182mgr_c,1_18:2_acylglycerol,C21H38O4
1184mgr_c,1_18:4_acylglycerol,C21H34O4
1203mgr_c,1_20:3_acylglycerol,C23H38O4
1204mgr_c,1_20:4_acylglycerol,C23H40O4
1226mgr_c,1_22:6_acylglycerol,C25H44O4
123tgr181_c,1_18:1_2_18:1_3_18:1_triacylglycerol,C57H104O6
12dgr182_c,1_18:2_2_18:2_diacylglycerol,C39H68O5
123tgr160_c,1_16:0_2_16:0_3_16:0_triacylglycerol,C51H92O6
sprm_c,spermine,C10H30N4
